<svg width="500" height="50" xmlns="http://www.w3.org/2000/svg" version="1.1">
    <!-- soundchi.me-->
<!-- rect x="0" y="0" width="500" height="50" stroke="white" fill="none" stroke-width="1"/-->
<!-- last track -->
<polygon points="45,40 33,25 33,40 20,25 33,10 33,25 45,10" fill="white" stroke="none"/>
<!-- play -->
<polygon points="60,40 85,25 60,10" fill="white" stroke="none"/>
<!-- timeline -->
<line x1="100" y1="25" x2="450" y2="25" stroke="white" stroke-width="2"/>
<!-- time indicator -->
<rect x="145" y="15" width="10" height="20" fill="white" stroke="none"/>
<!-- next track -->
<polygon points="470,40 483,25 483,40 495,25 483,10 483,25 470,10" fill="white" stroke="none"/>

</svg>
